{
    "prepare_queue": {
        "installed": [],
        "uninstalled": []
    },
    "config_munge": {
        "files": {}
    },
    "installed_plugins": {
        "cordova-plugin-media": {
            "PACKAGE_NAME": "com.wld.sp.app"
        },
        "cordova-plugin-vibration": {
            "PACKAGE_NAME": "com.wld.sp.app"
        },
        "cordova-plugin-whitelist": {
            "PACKAGE_NAME": "com.wld.sp.app"
        },
        "org.apache.cordova.plugin.cache": {
            "PACKAGE_NAME": "com.wld.sp.app"
        }
    },
    "dependent_plugins": {
        "cordova-plugin-compat": {
            "PACKAGE_NAME": "com.wld.sp.app"
        },
        "cordova-plugin-file": {
            "PACKAGE_NAME": "com.wld.sp.app"
        }
    }
}